[
    {
        "jmhVersion" : "1.36",
        "benchmark" : "benchmarks.SumBenchmark.bench00_arraySumMethod",
        "mode" : "thrpt",
        "threads" : 1,
        "forks" : 4,
        "jvm" : "/private/var/root/Library/Caches/Coursier/arc/https/github.com/graalvm/graalvm-ce-builds/releases/download/vm-22.3.1/graalvm-ce-java17-darwin-amd64-22.3.1.tar.gz/graalvm-ce-java17-22.3.1/Contents/Home/bin/java",
        "jvmArgs" : [
            "-XX:ThreadPriorityPolicy=1",
            "-XX:+UnlockExperimentalVMOptions",
            "-XX:+EnableJVMCIProduct",
            "-XX:JVMCIThreadsPerNativeLibraryRuntime=1",
            "-XX:-UnlockExperimentalVMOptions"
        ],
        "jdkVersion" : "17.0.6",
        "vmName" : "OpenJDK 64-Bit Server VM",
        "vmVersion" : "17.0.6+10-jvmci-22.3-b13",
        "warmupIterations" : 5,
        "warmupTime" : "2 s",
        "warmupBatchSize" : 1,
        "measurementIterations" : 5,
        "measurementTime" : "2 s",
        "measurementBatchSize" : 1,
        "primaryMetric" : {
            "score" : 387640.2309101154,
            "scoreError" : 11439.754367195212,
            "scoreConfidence" : [
                376200.4765429202,
                399079.9852773106
            ],
            "scorePercentiles" : {
                "0.0" : 365116.42762141634,
                "50.0" : 389043.43913495546,
                "90.0" : 403992.7789712733,
                "95.0" : 405357.36734808143,
                "99.0" : 405427.7548680743,
                "99.9" : 405427.7548680743,
                "99.99" : 405427.7548680743,
                "99.999" : 405427.7548680743,
                "99.9999" : 405427.7548680743,
                "100.0" : 405427.7548680743
            },
            "scoreUnit" : "ops/s",
            "rawData" : [
                [
                    401478.39066058415,
                    397487.188025294,
                    403747.74949877954,
                    393278.942246685,
                    390186.5874262934
                ],
                [
                    366175.8987762438,
                    387832.2461732869,
                    378834.3583060297,
                    387900.2908436175,
                    385583.2923404049
                ],
                [
                    369389.63395023847,
                    365116.42762141634,
                    371340.81013650796,
                    377838.4369611818,
                    376742.47179357585
                ],
                [
                    398696.0657753979,
                    404020.004468217,
                    394180.92424484703,
                    397547.1440856313,
                    405427.7548680743
                ]
            ]
        },
        "secondaryMetrics" : {
        }
    },
    {
        "jmhVersion" : "1.36",
        "benchmark" : "benchmarks.SumBenchmark.bench01_arrayWhileLoopIndex",
        "mode" : "thrpt",
        "threads" : 1,
        "forks" : 4,
        "jvm" : "/private/var/root/Library/Caches/Coursier/arc/https/github.com/graalvm/graalvm-ce-builds/releases/download/vm-22.3.1/graalvm-ce-java17-darwin-amd64-22.3.1.tar.gz/graalvm-ce-java17-22.3.1/Contents/Home/bin/java",
        "jvmArgs" : [
            "-XX:ThreadPriorityPolicy=1",
            "-XX:+UnlockExperimentalVMOptions",
            "-XX:+EnableJVMCIProduct",
            "-XX:JVMCIThreadsPerNativeLibraryRuntime=1",
            "-XX:-UnlockExperimentalVMOptions"
        ],
        "jdkVersion" : "17.0.6",
        "vmName" : "OpenJDK 64-Bit Server VM",
        "vmVersion" : "17.0.6+10-jvmci-22.3-b13",
        "warmupIterations" : 5,
        "warmupTime" : "2 s",
        "warmupBatchSize" : 1,
        "measurementIterations" : 5,
        "measurementTime" : "2 s",
        "measurementBatchSize" : 1,
        "primaryMetric" : {
            "score" : 401295.21020377585,
            "scoreError" : 11026.297102421277,
            "scoreConfidence" : [
                390268.91310135456,
                412321.50730619713
            ],
            "scorePercentiles" : {
                "0.0" : 369258.56648059393,
                "50.0" : 406831.38048488286,
                "90.0" : 413863.20929970813,
                "95.0" : 414267.4921843308,
                "99.0" : 414287.25482552784,
                "99.9" : 414287.25482552784,
                "99.99" : 414287.25482552784,
                "99.999" : 414287.25482552784,
                "99.9999" : 414287.25482552784,
                "100.0" : 414287.25482552784
            },
            "scoreUnit" : "ops/s",
            "rawData" : [
                [
                    395317.7647253152,
                    412568.614962874,
                    394214.634008928,
                    414287.25482552784,
                    407429.20447776397
                ],
                [
                    369258.56648059393,
                    397243.4039154917,
                    381856.11371847807,
                    392326.76218634815,
                    390828.91133722506
                ],
                [
                    411097.8949424356,
                    412366.632320036,
                    387366.8545246278,
                    395064.05553576554,
                    410017.93577673775
                ],
                [
                    409204.131485839,
                    406233.5564920018,
                    413892.00200158806,
                    413604.07498278894,
                    411725.83537515
                ]
            ]
        },
        "secondaryMetrics" : {
        }
    },
    {
        "jmhVersion" : "1.36",
        "benchmark" : "benchmarks.SumBenchmark.bench02_arrayForLoopIndex",
        "mode" : "thrpt",
        "threads" : 1,
        "forks" : 4,
        "jvm" : "/private/var/root/Library/Caches/Coursier/arc/https/github.com/graalvm/graalvm-ce-builds/releases/download/vm-22.3.1/graalvm-ce-java17-darwin-amd64-22.3.1.tar.gz/graalvm-ce-java17-22.3.1/Contents/Home/bin/java",
        "jvmArgs" : [
            "-XX:ThreadPriorityPolicy=1",
            "-XX:+UnlockExperimentalVMOptions",
            "-XX:+EnableJVMCIProduct",
            "-XX:JVMCIThreadsPerNativeLibraryRuntime=1",
            "-XX:-UnlockExperimentalVMOptions"
        ],
        "jdkVersion" : "17.0.6",
        "vmName" : "OpenJDK 64-Bit Server VM",
        "vmVersion" : "17.0.6+10-jvmci-22.3-b13",
        "warmupIterations" : 5,
        "warmupTime" : "2 s",
        "warmupBatchSize" : 1,
        "measurementIterations" : 5,
        "measurementTime" : "2 s",
        "measurementBatchSize" : 1,
        "primaryMetric" : {
            "score" : 190946.06970020692,
            "scoreError" : 1061.656254310633,
            "scoreConfidence" : [
                189884.4134458963,
                192007.72595451755
            ],
            "scorePercentiles" : {
                "0.0" : 188329.27096846674,
                "50.0" : 191241.6611182455,
                "90.0" : 192424.94551952582,
                "95.0" : 192591.22948827202,
                "99.0" : 192598.5760139246,
                "99.9" : 192598.5760139246,
                "99.99" : 192598.5760139246,
                "99.999" : 192598.5760139246,
                "99.9999" : 192598.5760139246,
                "100.0" : 192598.5760139246
            },
            "scoreUnit" : "ops/s",
            "rawData" : [
                [
                    188990.24602055058,
                    191756.88820911123,
                    191020.9383746753,
                    192184.64568740368,
                    191020.30875403868
                ],
                [
                    189218.5215741739,
                    192598.5760139246,
                    191157.9960022011,
                    191609.76414138646,
                    191325.3262342899
                ],
                [
                    188329.27096846674,
                    191659.06338493308,
                    191619.99318804883,
                    188870.8734793523,
                    191063.76959661837
                ],
                [
                    191094.0566070982,
                    192451.64550087272,
                    191520.77010863097,
                    191479.68864176545,
                    189949.0515165963
                ]
            ]
        },
        "secondaryMetrics" : {
        }
    },
    {
        "jmhVersion" : "1.36",
        "benchmark" : "benchmarks.SumBenchmark.bench03_arrayOptimizedForLoopIndex",
        "mode" : "thrpt",
        "threads" : 1,
        "forks" : 4,
        "jvm" : "/private/var/root/Library/Caches/Coursier/arc/https/github.com/graalvm/graalvm-ce-builds/releases/download/vm-22.3.1/graalvm-ce-java17-darwin-amd64-22.3.1.tar.gz/graalvm-ce-java17-22.3.1/Contents/Home/bin/java",
        "jvmArgs" : [
            "-XX:ThreadPriorityPolicy=1",
            "-XX:+UnlockExperimentalVMOptions",
            "-XX:+EnableJVMCIProduct",
            "-XX:JVMCIThreadsPerNativeLibraryRuntime=1",
            "-XX:-UnlockExperimentalVMOptions"
        ],
        "jdkVersion" : "17.0.6",
        "vmName" : "OpenJDK 64-Bit Server VM",
        "vmVersion" : "17.0.6+10-jvmci-22.3-b13",
        "warmupIterations" : 5,
        "warmupTime" : "2 s",
        "warmupBatchSize" : 1,
        "measurementIterations" : 5,
        "measurementTime" : "2 s",
        "measurementBatchSize" : 1,
        "primaryMetric" : {
            "score" : 393030.6872759014,
            "scoreError" : 17167.0933374483,
            "scoreConfidence" : [
                375863.59393845306,
                410197.7806133497
            ],
            "scorePercentiles" : {
                "0.0" : 352739.8085876422,
                "50.0" : 388877.8551354207,
                "90.0" : 424052.5260794868,
                "95.0" : 428657.9562589329,
                "99.0" : 428896.415761891,
                "99.9" : 428896.415761891,
                "99.99" : 428896.415761891,
                "99.999" : 428896.415761891,
                "99.9999" : 428896.415761891,
                "100.0" : 428896.415761891
            },
            "scoreUnit" : "ops/s",
            "rawData" : [
                [
                    424127.2257027283,
                    428896.415761891,
                    423380.2294703134,
                    421009.35183034017,
                    413528.2604877359
                ],
                [
                    369674.8182179208,
                    387761.16044691147,
                    352739.8085876422,
                    382070.0529914552,
                    386317.2265515814
                ],
                [
                    389994.54982392996,
                    373476.6848327867,
                    383171.89825099806,
                    391854.8600347827,
                    392595.4769387747
                ],
                [
                    390138.6287424222,
                    386917.2543025576,
                    393856.63661181537,
                    382795.76747295255,
                    386307.4384584887
                ]
            ]
        },
        "secondaryMetrics" : {
        }
    },
    {
        "jmhVersion" : "1.36",
        "benchmark" : "benchmarks.SumBenchmark.bench04_arrayForLoop",
        "mode" : "thrpt",
        "threads" : 1,
        "forks" : 4,
        "jvm" : "/private/var/root/Library/Caches/Coursier/arc/https/github.com/graalvm/graalvm-ce-builds/releases/download/vm-22.3.1/graalvm-ce-java17-darwin-amd64-22.3.1.tar.gz/graalvm-ce-java17-22.3.1/Contents/Home/bin/java",
        "jvmArgs" : [
            "-XX:ThreadPriorityPolicy=1",
            "-XX:+UnlockExperimentalVMOptions",
            "-XX:+EnableJVMCIProduct",
            "-XX:JVMCIThreadsPerNativeLibraryRuntime=1",
            "-XX:-UnlockExperimentalVMOptions"
        ],
        "jdkVersion" : "17.0.6",
        "vmName" : "OpenJDK 64-Bit Server VM",
        "vmVersion" : "17.0.6+10-jvmci-22.3-b13",
        "warmupIterations" : 5,
        "warmupTime" : "2 s",
        "warmupBatchSize" : 1,
        "measurementIterations" : 5,
        "measurementTime" : "2 s",
        "measurementBatchSize" : 1,
        "primaryMetric" : {
            "score" : 393339.57236351346,
            "scoreError" : 10896.991880816387,
            "scoreConfidence" : [
                382442.58048269706,
                404236.5642443299
            ],
            "scorePercentiles" : {
                "0.0" : 377225.8809880913,
                "50.0" : 388147.94931709376,
                "90.0" : 411326.67754547537,
                "95.0" : 412857.473452265,
                "99.0" : 412935.6199678103,
                "99.9" : 412935.6199678103,
                "99.99" : 412935.6199678103,
                "99.999" : 412935.6199678103,
                "99.9999" : 412935.6199678103,
                "100.0" : 412935.6199678103
            },
            "scoreUnit" : "ops/s",
            "rawData" : [
                [
                    411372.6896569055,
                    412935.6199678103,
                    403711.9607417136,
                    408734.61293363024,
                    405612.993385065
                ],
                [
                    382963.4217778914,
                    378605.18661523017,
                    388322.0379225899,
                    386100.8764223618,
                    387973.8607115976
                ],
                [
                    410912.5685426044,
                    402553.73341154016,
                    395644.8856877214,
                    386682.14113144344,
                    385312.61829508026
                ],
                [
                    384048.88009068684,
                    401099.14349182456,
                    377225.8809880913,
                    379349.1656706676,
                    377629.16982581397
                ]
            ]
        },
        "secondaryMetrics" : {
        }
    },
    {
        "jmhVersion" : "1.36",
        "benchmark" : "benchmarks.SumBenchmark.bench05_arrayOptimizedForeach",
        "mode" : "thrpt",
        "threads" : 1,
        "forks" : 4,
        "jvm" : "/private/var/root/Library/Caches/Coursier/arc/https/github.com/graalvm/graalvm-ce-builds/releases/download/vm-22.3.1/graalvm-ce-java17-darwin-amd64-22.3.1.tar.gz/graalvm-ce-java17-22.3.1/Contents/Home/bin/java",
        "jvmArgs" : [
            "-XX:ThreadPriorityPolicy=1",
            "-XX:+UnlockExperimentalVMOptions",
            "-XX:+EnableJVMCIProduct",
            "-XX:JVMCIThreadsPerNativeLibraryRuntime=1",
            "-XX:-UnlockExperimentalVMOptions"
        ],
        "jdkVersion" : "17.0.6",
        "vmName" : "OpenJDK 64-Bit Server VM",
        "vmVersion" : "17.0.6+10-jvmci-22.3-b13",
        "warmupIterations" : 5,
        "warmupTime" : "2 s",
        "warmupBatchSize" : 1,
        "measurementIterations" : 5,
        "measurementTime" : "2 s",
        "measurementBatchSize" : 1,
        "primaryMetric" : {
            "score" : 393441.90670928295,
            "scoreError" : 4563.299582643038,
            "scoreConfidence" : [
                388878.6071266399,
                398005.206291926
            ],
            "scorePercentiles" : {
                "0.0" : 380659.97639350826,
                "50.0" : 395121.9691140675,
                "90.0" : 398811.1794995078,
                "95.0" : 400683.1601337455,
                "99.0" : 400772.6732698937,
                "99.9" : 400772.6732698937,
                "99.99" : 400772.6732698937,
                "99.999" : 400772.6732698937,
                "99.9999" : 400772.6732698937,
                "100.0" : 400772.6732698937
            },
            "scoreUnit" : "ops/s",
            "rawData" : [
                [
                    394238.370490632,
                    395440.06424930686,
                    394593.72643766203,
                    395125.94670174486,
                    391149.77894864726
                ],
                [
                    395117.99152639013,
                    397270.1000727015,
                    396065.7801550404,
                    397031.3769868654,
                    395437.1015108265
                ],
                [
                    395081.8452902394,
                    385791.2561696841,
                    384127.46375474514,
                    398982.41054693074,
                    400772.6732698937
                ],
                [
                    396550.69000304455,
                    395315.0858681814,
                    380659.97639350826,
                    385720.20227700885,
                    394366.29353260604
                ]
            ]
        },
        "secondaryMetrics" : {
        }
    },
    {
        "jmhVersion" : "1.36",
        "benchmark" : "benchmarks.SumBenchmark.bench06_arrayOptimizedForeachArgInlined",
        "mode" : "thrpt",
        "threads" : 1,
        "forks" : 4,
        "jvm" : "/private/var/root/Library/Caches/Coursier/arc/https/github.com/graalvm/graalvm-ce-builds/releases/download/vm-22.3.1/graalvm-ce-java17-darwin-amd64-22.3.1.tar.gz/graalvm-ce-java17-22.3.1/Contents/Home/bin/java",
        "jvmArgs" : [
            "-XX:ThreadPriorityPolicy=1",
            "-XX:+UnlockExperimentalVMOptions",
            "-XX:+EnableJVMCIProduct",
            "-XX:JVMCIThreadsPerNativeLibraryRuntime=1",
            "-XX:-UnlockExperimentalVMOptions"
        ],
        "jdkVersion" : "17.0.6",
        "vmName" : "OpenJDK 64-Bit Server VM",
        "vmVersion" : "17.0.6+10-jvmci-22.3-b13",
        "warmupIterations" : 5,
        "warmupTime" : "2 s",
        "warmupBatchSize" : 1,
        "measurementIterations" : 5,
        "measurementTime" : "2 s",
        "measurementBatchSize" : 1,
        "primaryMetric" : {
            "score" : 396730.23037944635,
            "scoreError" : 5391.8345997419465,
            "scoreConfidence" : [
                391338.3957797044,
                402122.0649791883
            ],
            "scorePercentiles" : {
                "0.0" : 382241.8690239171,
                "50.0" : 398490.46497710753,
                "90.0" : 402613.2537042299,
                "95.0" : 406007.0759154534,
                "99.0" : 406181.89097900153,
                "99.9" : 406181.89097900153,
                "99.99" : 406181.89097900153,
                "99.999" : 406181.89097900153,
                "99.9999" : 406181.89097900153,
                "100.0" : 406181.89097900153
            },
            "scoreUnit" : "ops/s",
            "rawData" : [
                [
                    399601.0268109865,
                    400636.7167241731,
                    399659.0616361372,
                    396023.9973007781,
                    406181.89097900153
                ],
                [
                    402685.5897080387,
                    397895.50224171806,
                    393223.92882484366,
                    393773.89190284745,
                    401230.46332993795
                ],
                [
                    399085.427712497,
                    400800.92716061487,
                    394629.7055714827,
                    382789.42946473695,
                    394010.0274774328
                ],
                [
                    401818.0102612918,
                    401962.22966995026,
                    395990.373464392,
                    390364.5383241493,
                    382241.8690239171
                ]
            ]
        },
        "secondaryMetrics" : {
        }
    },
    {
        "jmhVersion" : "1.36",
        "benchmark" : "benchmarks.SumBenchmark.bench07_listSumMethod",
        "mode" : "thrpt",
        "threads" : 1,
        "forks" : 4,
        "jvm" : "/private/var/root/Library/Caches/Coursier/arc/https/github.com/graalvm/graalvm-ce-builds/releases/download/vm-22.3.1/graalvm-ce-java17-darwin-amd64-22.3.1.tar.gz/graalvm-ce-java17-22.3.1/Contents/Home/bin/java",
        "jvmArgs" : [
            "-XX:ThreadPriorityPolicy=1",
            "-XX:+UnlockExperimentalVMOptions",
            "-XX:+EnableJVMCIProduct",
            "-XX:JVMCIThreadsPerNativeLibraryRuntime=1",
            "-XX:-UnlockExperimentalVMOptions"
        ],
        "jdkVersion" : "17.0.6",
        "vmName" : "OpenJDK 64-Bit Server VM",
        "vmVersion" : "17.0.6+10-jvmci-22.3-b13",
        "warmupIterations" : 5,
        "warmupTime" : "2 s",
        "warmupBatchSize" : 1,
        "measurementIterations" : 5,
        "measurementTime" : "2 s",
        "measurementBatchSize" : 1,
        "primaryMetric" : {
            "score" : 30722.89354859977,
            "scoreError" : 420.0922708488823,
            "scoreConfidence" : [
                30302.80127775089,
                31142.985819448655
            ],
            "scorePercentiles" : {
                "0.0" : 29577.607525265787,
                "50.0" : 30847.02053685266,
                "90.0" : 31081.25846463615,
                "95.0" : 31856.591375063912,
                "99.0" : 31897.348192988007,
                "99.9" : 31897.348192988007,
                "99.99" : 31897.348192988007,
                "99.999" : 31897.348192988007,
                "99.9999" : 31897.348192988007,
                "100.0" : 31897.348192988007
            },
            "scoreUnit" : "ops/s",
            "rawData" : [
                [
                    30067.536078846886,
                    29577.607525265787,
                    30138.33840045368,
                    30174.471449144574,
                    30928.643404577084
                ],
                [
                    30667.159614268767,
                    30654.557852261143,
                    30520.161579192893,
                    30963.676823828184,
                    30844.541119448768
                ],
                [
                    30536.708972705354,
                    31072.678135806662,
                    31046.30031924348,
                    31082.211834506095,
                    31897.348192988007
                ],
                [
                    30925.793673002827,
                    30874.908196208034,
                    30941.890263540332,
                    30849.499954256553,
                    30693.83758245036
                ]
            ]
        },
        "secondaryMetrics" : {
        }
    },
    {
        "jmhVersion" : "1.36",
        "benchmark" : "benchmarks.SumBenchmark.bench08_listForLoopIndex",
        "mode" : "thrpt",
        "threads" : 1,
        "forks" : 4,
        "jvm" : "/private/var/root/Library/Caches/Coursier/arc/https/github.com/graalvm/graalvm-ce-builds/releases/download/vm-22.3.1/graalvm-ce-java17-darwin-amd64-22.3.1.tar.gz/graalvm-ce-java17-22.3.1/Contents/Home/bin/java",
        "jvmArgs" : [
            "-XX:ThreadPriorityPolicy=1",
            "-XX:+UnlockExperimentalVMOptions",
            "-XX:+EnableJVMCIProduct",
            "-XX:JVMCIThreadsPerNativeLibraryRuntime=1",
            "-XX:-UnlockExperimentalVMOptions"
        ],
        "jdkVersion" : "17.0.6",
        "vmName" : "OpenJDK 64-Bit Server VM",
        "vmVersion" : "17.0.6+10-jvmci-22.3-b13",
        "warmupIterations" : 5,
        "warmupTime" : "2 s",
        "warmupBatchSize" : 1,
        "measurementIterations" : 5,
        "measurementTime" : "2 s",
        "measurementBatchSize" : 1,
        "primaryMetric" : {
            "score" : 10.704874319495312,
            "scoreError" : 0.33806573308859805,
            "scoreConfidence" : [
                10.366808586406714,
                11.04294005258391
            ],
            "scorePercentiles" : {
                "0.0" : 9.877704149859442,
                "50.0" : 10.727819256681634,
                "90.0" : 11.211108037449401,
                "95.0" : 11.225844697907846,
                "99.0" : 11.226187368273962,
                "99.9" : 11.226187368273962,
                "99.99" : 11.226187368273962,
                "99.999" : 11.226187368273962,
                "99.9999" : 11.226187368273962,
                "100.0" : 11.226187368273962
            },
            "scoreUnit" : "ops/s",
            "rawData" : [
                [
                    10.595823800441236,
                    11.226187368273962,
                    10.336849315658563,
                    11.06256613926516,
                    11.060322399184207
                ],
                [
                    10.873611221509842,
                    9.877704149859442,
                    10.659658074566854,
                    10.596789014843678,
                    10.532059485908796
                ],
                [
                    10.192435888136762,
                    11.219333960951655,
                    10.795980438796413,
                    11.13707472592912,
                    11.122318711679116
                ],
                [
                    10.416583380502226,
                    10.951167948870516,
                    10.868243104209174,
                    10.41441687366436,
                    10.158360387655165
                ]
            ]
        },
        "secondaryMetrics" : {
        }
    },
    {
        "jmhVersion" : "1.36",
        "benchmark" : "benchmarks.SumBenchmark.bench09_listForLoop",
        "mode" : "thrpt",
        "threads" : 1,
        "forks" : 4,
        "jvm" : "/private/var/root/Library/Caches/Coursier/arc/https/github.com/graalvm/graalvm-ce-builds/releases/download/vm-22.3.1/graalvm-ce-java17-darwin-amd64-22.3.1.tar.gz/graalvm-ce-java17-22.3.1/Contents/Home/bin/java",
        "jvmArgs" : [
            "-XX:ThreadPriorityPolicy=1",
            "-XX:+UnlockExperimentalVMOptions",
            "-XX:+EnableJVMCIProduct",
            "-XX:JVMCIThreadsPerNativeLibraryRuntime=1",
            "-XX:-UnlockExperimentalVMOptions"
        ],
        "jdkVersion" : "17.0.6",
        "vmName" : "OpenJDK 64-Bit Server VM",
        "vmVersion" : "17.0.6+10-jvmci-22.3-b13",
        "warmupIterations" : 5,
        "warmupTime" : "2 s",
        "warmupBatchSize" : 1,
        "measurementIterations" : 5,
        "measurementTime" : "2 s",
        "measurementBatchSize" : 1,
        "primaryMetric" : {
            "score" : 44206.89045459016,
            "scoreError" : 1228.402264527161,
            "scoreConfidence" : [
                42978.488190063,
                45435.29271911732
            ],
            "scorePercentiles" : {
                "0.0" : 41410.06609390284,
                "50.0" : 44382.1106674262,
                "90.0" : 45780.8145210777,
                "95.0" : 46848.891274532674,
                "99.0" : 46903.41512723801,
                "99.9" : 46903.41512723801,
                "99.99" : 46903.41512723801,
                "99.999" : 46903.41512723801,
                "99.9999" : 46903.41512723801,
                "100.0" : 46903.41512723801
            },
            "scoreUnit" : "ops/s",
            "rawData" : [
                [
                    44885.79028089188,
                    44115.62139998291,
                    43866.4879484891,
                    45173.64595767289,
                    45812.93807313131
                ],
                [
                    44525.34492499177,
                    43882.72388138523,
                    45491.70255259526,
                    43148.160665208445,
                    43908.34849938229
                ],
                [
                    44531.88559902537,
                    43480.54784822365,
                    44722.62601754257,
                    46903.41512723801,
                    42003.51042418941
                ],
                [
                    45269.588219222045,
                    41444.01424508327,
                    45322.51492378428,
                    44238.87640986062,
                    41410.06609390284
                ]
            ]
        },
        "secondaryMetrics" : {
        }
    },
    {
        "jmhVersion" : "1.36",
        "benchmark" : "benchmarks.SumBenchmark.bench10_listOptimizedForeach",
        "mode" : "thrpt",
        "threads" : 1,
        "forks" : 4,
        "jvm" : "/private/var/root/Library/Caches/Coursier/arc/https/github.com/graalvm/graalvm-ce-builds/releases/download/vm-22.3.1/graalvm-ce-java17-darwin-amd64-22.3.1.tar.gz/graalvm-ce-java17-22.3.1/Contents/Home/bin/java",
        "jvmArgs" : [
            "-XX:ThreadPriorityPolicy=1",
            "-XX:+UnlockExperimentalVMOptions",
            "-XX:+EnableJVMCIProduct",
            "-XX:JVMCIThreadsPerNativeLibraryRuntime=1",
            "-XX:-UnlockExperimentalVMOptions"
        ],
        "jdkVersion" : "17.0.6",
        "vmName" : "OpenJDK 64-Bit Server VM",
        "vmVersion" : "17.0.6+10-jvmci-22.3-b13",
        "warmupIterations" : 5,
        "warmupTime" : "2 s",
        "warmupBatchSize" : 1,
        "measurementIterations" : 5,
        "measurementTime" : "2 s",
        "measurementBatchSize" : 1,
        "primaryMetric" : {
            "score" : 44913.56311068732,
            "scoreError" : 1611.2941536866197,
            "scoreConfidence" : [
                43302.2689570007,
                46524.85726437394
            ],
            "scorePercentiles" : {
                "0.0" : 41862.368306891745,
                "50.0" : 44866.35706951219,
                "90.0" : 47995.63477318857,
                "95.0" : 48369.65326996637,
                "99.0" : 48382.66720534754,
                "99.9" : 48382.66720534754,
                "99.99" : 48382.66720534754,
                "99.999" : 48382.66720534754,
                "99.9999" : 48382.66720534754,
                "100.0" : 48382.66720534754
            },
            "scoreUnit" : "ops/s",
            "rawData" : [
                [
                    44777.33470427341,
                    43057.87168348078,
                    43262.09559086355,
                    44955.37943475096,
                    43229.477495441606
                ],
                [
                    42763.08909940678,
                    45777.53259737617,
                    43147.53513770736,
                    41862.368306891745,
                    44351.26121934718
                ],
                [
                    45886.83591444945,
                    48122.38849772425,
                    46109.38393840843,
                    48382.66720534754,
                    46192.79131378194
                ],
                [
                    44529.848732241706,
                    42827.17699727027,
                    46758.285627247096,
                    45423.0874653685,
                    46854.85125236744
                ]
            ]
        },
        "secondaryMetrics" : {
        }
    },
    {
        "jmhVersion" : "1.36",
        "benchmark" : "benchmarks.SumBenchmark.bench11_listOptimizedForeachArgInlined",
        "mode" : "thrpt",
        "threads" : 1,
        "forks" : 4,
        "jvm" : "/private/var/root/Library/Caches/Coursier/arc/https/github.com/graalvm/graalvm-ce-builds/releases/download/vm-22.3.1/graalvm-ce-java17-darwin-amd64-22.3.1.tar.gz/graalvm-ce-java17-22.3.1/Contents/Home/bin/java",
        "jvmArgs" : [
            "-XX:ThreadPriorityPolicy=1",
            "-XX:+UnlockExperimentalVMOptions",
            "-XX:+EnableJVMCIProduct",
            "-XX:JVMCIThreadsPerNativeLibraryRuntime=1",
            "-XX:-UnlockExperimentalVMOptions"
        ],
        "jdkVersion" : "17.0.6",
        "vmName" : "OpenJDK 64-Bit Server VM",
        "vmVersion" : "17.0.6+10-jvmci-22.3-b13",
        "warmupIterations" : 5,
        "warmupTime" : "2 s",
        "warmupBatchSize" : 1,
        "measurementIterations" : 5,
        "measurementTime" : "2 s",
        "measurementBatchSize" : 1,
        "primaryMetric" : {
            "score" : 44796.53344350756,
            "scoreError" : 1520.0972206906945,
            "scoreConfidence" : [
                43276.43622281686,
                46316.63066419825
            ],
            "scorePercentiles" : {
                "0.0" : 41578.00018900372,
                "50.0" : 44965.3811697168,
                "90.0" : 46822.18601410732,
                "95.0" : 47452.03117882315,
                "99.0" : 47483.08938289554,
                "99.9" : 47483.08938289554,
                "99.99" : 47483.08938289554,
                "99.999" : 47483.08938289554,
                "99.9999" : 47483.08938289554,
                "100.0" : 47483.08938289554
            },
            "scoreUnit" : "ops/s",
            "rawData" : [
                [
                    45788.56930405819,
                    41811.19988314961,
                    41578.00018900372,
                    44081.70533995814,
                    45901.15220163314
                ],
                [
                    45648.044338163476,
                    44687.53942000882,
                    46464.532428043516,
                    45243.222919424785,
                    42021.35409687221
                ],
                [
                    44685.01522875539,
                    43514.56708495892,
                    46432.77976759739,
                    46861.92530144774,
                    44381.654804577505
                ],
                [
                    46248.59685725513,
                    43835.46029206997,
                    42936.809579354565,
                    47483.08938289554,
                    46325.45045092348
                ]
            ]
        },
        "secondaryMetrics" : {
        }
    }
]


