[
    {
        "jmhVersion" : "1.36",
        "benchmark" : "benchmarks.SumBenchmark.bench00_arraySumMethod",
        "mode" : "thrpt",
        "threads" : 1,
        "forks" : 4,
        "jvm" : "/private/var/root/Library/Caches/Coursier/arc/https/github.com/graalvm/graalvm-ce-builds/releases/download/vm-22.3.1/graalvm-ce-java17-darwin-amd64-22.3.1.tar.gz/graalvm-ce-java17-22.3.1/Contents/Home/bin/java",
        "jvmArgs" : [
            "-XX:ThreadPriorityPolicy=1",
            "-XX:+UnlockExperimentalVMOptions",
            "-XX:+EnableJVMCIProduct",
            "-XX:JVMCIThreadsPerNativeLibraryRuntime=1",
            "-XX:-UnlockExperimentalVMOptions"
        ],
        "jdkVersion" : "17.0.6",
        "vmName" : "OpenJDK 64-Bit Server VM",
        "vmVersion" : "17.0.6+10-jvmci-22.3-b13",
        "warmupIterations" : 5,
        "warmupTime" : "2 s",
        "warmupBatchSize" : 1,
        "measurementIterations" : 5,
        "measurementTime" : "2 s",
        "measurementBatchSize" : 1,
        "primaryMetric" : {
            "score" : 391312.7190049294,
            "scoreError" : 7405.8438752994725,
            "scoreConfidence" : [
                383906.8751296299,
                398718.5628802289
            ],
            "scorePercentiles" : {
                "0.0" : 374391.1407663787,
                "50.0" : 391871.9048248483,
                "90.0" : 403783.35448924924,
                "95.0" : 404965.15164466295,
                "99.0" : 405021.09274156165,
                "99.9" : 405021.09274156165,
                "99.99" : 405021.09274156165,
                "99.999" : 405021.09274156165,
                "99.9999" : 405021.09274156165,
                "100.0" : 405021.09274156165
            },
            "scoreUnit" : "ops/s",
            "rawData" : [
                [
                    391137.7601682521,
                    393486.4897892448,
                    383198.7037597892,
                    381142.3815204746,
                    374391.1407663787
                ],
                [
                    381889.8852483016,
                    399396.8834473319,
                    392606.04948144447,
                    393487.7101216281,
                    380865.087019727
                ],
                [
                    402713.10766020615,
                    399741.38439663156,
                    403902.27080358734,
                    405021.09274156165,
                    394565.15870424296
                ],
                [
                    384920.05173239985,
                    389934.1422005883,
                    387678.9397913213,
                    397066.0024003878,
                    389110.13834508864
                ]
            ]
        },
        "secondaryMetrics" : {
        }
    },
    {
        "jmhVersion" : "1.36",
        "benchmark" : "benchmarks.SumBenchmark.bench01_arrayWhileLoopIndex",
        "mode" : "thrpt",
        "threads" : 1,
        "forks" : 4,
        "jvm" : "/private/var/root/Library/Caches/Coursier/arc/https/github.com/graalvm/graalvm-ce-builds/releases/download/vm-22.3.1/graalvm-ce-java17-darwin-amd64-22.3.1.tar.gz/graalvm-ce-java17-22.3.1/Contents/Home/bin/java",
        "jvmArgs" : [
            "-XX:ThreadPriorityPolicy=1",
            "-XX:+UnlockExperimentalVMOptions",
            "-XX:+EnableJVMCIProduct",
            "-XX:JVMCIThreadsPerNativeLibraryRuntime=1",
            "-XX:-UnlockExperimentalVMOptions"
        ],
        "jdkVersion" : "17.0.6",
        "vmName" : "OpenJDK 64-Bit Server VM",
        "vmVersion" : "17.0.6+10-jvmci-22.3-b13",
        "warmupIterations" : 5,
        "warmupTime" : "2 s",
        "warmupBatchSize" : 1,
        "measurementIterations" : 5,
        "measurementTime" : "2 s",
        "measurementBatchSize" : 1,
        "primaryMetric" : {
            "score" : 403081.6260274072,
            "scoreError" : 10758.161554927532,
            "scoreConfidence" : [
                392323.46447247965,
                413839.7875823347
            ],
            "scorePercentiles" : {
                "0.0" : 378608.7111613523,
                "50.0" : 402332.11024577316,
                "90.0" : 417425.38600967877,
                "95.0" : 422011.28037377784,
                "99.0" : 422245.3258914346,
                "99.9" : 422245.3258914346,
                "99.99" : 422245.3258914346,
                "99.999" : 422245.3258914346,
                "99.9999" : 422245.3258914346,
                "100.0" : 422245.3258914346
            },
            "scoreUnit" : "ops/s",
            "rawData" : [
                [
                    378608.7111613523,
                    401129.5540043881,
                    400111.7045657071,
                    402834.03414556506,
                    389429.2131799864
                ],
                [
                    417564.4155382992,
                    412507.09599980025,
                    414919.4233233767,
                    411586.06591755676,
                    401830.18634598126
                ],
                [
                    391422.9139811145,
                    396118.0572291617,
                    382714.8265497107,
                    394628.44533900154,
                    391436.1470998035
                ],
                [
                    422245.3258914346,
                    410838.6574590132,
                    415312.23906020215,
                    416174.12025209516,
                    410221.3835045925
                ]
            ]
        },
        "secondaryMetrics" : {
        }
    },
    {
        "jmhVersion" : "1.36",
        "benchmark" : "benchmarks.SumBenchmark.bench02_arrayForLoopIndex",
        "mode" : "thrpt",
        "threads" : 1,
        "forks" : 4,
        "jvm" : "/private/var/root/Library/Caches/Coursier/arc/https/github.com/graalvm/graalvm-ce-builds/releases/download/vm-22.3.1/graalvm-ce-java17-darwin-amd64-22.3.1.tar.gz/graalvm-ce-java17-22.3.1/Contents/Home/bin/java",
        "jvmArgs" : [
            "-XX:ThreadPriorityPolicy=1",
            "-XX:+UnlockExperimentalVMOptions",
            "-XX:+EnableJVMCIProduct",
            "-XX:JVMCIThreadsPerNativeLibraryRuntime=1",
            "-XX:-UnlockExperimentalVMOptions"
        ],
        "jdkVersion" : "17.0.6",
        "vmName" : "OpenJDK 64-Bit Server VM",
        "vmVersion" : "17.0.6+10-jvmci-22.3-b13",
        "warmupIterations" : 5,
        "warmupTime" : "2 s",
        "warmupBatchSize" : 1,
        "measurementIterations" : 5,
        "measurementTime" : "2 s",
        "measurementBatchSize" : 1,
        "primaryMetric" : {
            "score" : 191700.1076435747,
            "scoreError" : 2476.6648411792894,
            "scoreConfidence" : [
                189223.4428023954,
                194176.772484754
            ],
            "scorePercentiles" : {
                "0.0" : 183848.55480255437,
                "50.0" : 192565.8593847326,
                "90.0" : 194144.2921851823,
                "95.0" : 194217.79028361064,
                "99.0" : 194219.686808986,
                "99.9" : 194219.686808986,
                "99.99" : 194219.686808986,
                "99.999" : 194219.686808986,
                "99.9999" : 194219.686808986,
                "100.0" : 194219.686808986
            },
            "scoreUnit" : "ops/s",
            "rawData" : [
                [
                    193807.1151385138,
                    193280.36669729467,
                    191676.33526834229,
                    194181.7563014788,
                    190916.9990282177
                ],
                [
                    193666.35024623174,
                    192867.0028914525,
                    192646.6853985825,
                    183848.55480255437,
                    184617.54673073336
                ],
                [
                    192404.066048689,
                    192304.56552852778,
                    192751.72854867362,
                    194219.686808986,
                    188806.00602189318
                ],
                [
                    192485.0333708827,
                    192814.53080748222,
                    192349.46550924613,
                    193499.45867016233,
                    190858.8990535501
                ]
            ]
        },
        "secondaryMetrics" : {
        }
    },
    {
        "jmhVersion" : "1.36",
        "benchmark" : "benchmarks.SumBenchmark.bench03_arrayOptimizedForLoopIndex",
        "mode" : "thrpt",
        "threads" : 1,
        "forks" : 4,
        "jvm" : "/private/var/root/Library/Caches/Coursier/arc/https/github.com/graalvm/graalvm-ce-builds/releases/download/vm-22.3.1/graalvm-ce-java17-darwin-amd64-22.3.1.tar.gz/graalvm-ce-java17-22.3.1/Contents/Home/bin/java",
        "jvmArgs" : [
            "-XX:ThreadPriorityPolicy=1",
            "-XX:+UnlockExperimentalVMOptions",
            "-XX:+EnableJVMCIProduct",
            "-XX:JVMCIThreadsPerNativeLibraryRuntime=1",
            "-XX:-UnlockExperimentalVMOptions"
        ],
        "jdkVersion" : "17.0.6",
        "vmName" : "OpenJDK 64-Bit Server VM",
        "vmVersion" : "17.0.6+10-jvmci-22.3-b13",
        "warmupIterations" : 5,
        "warmupTime" : "2 s",
        "warmupBatchSize" : 1,
        "measurementIterations" : 5,
        "measurementTime" : "2 s",
        "measurementBatchSize" : 1,
        "primaryMetric" : {
            "score" : 398695.171892875,
            "scoreError" : 8389.081872284836,
            "scoreConfidence" : [
                390306.09002059017,
                407084.2537651598
            ],
            "scorePercentiles" : {
                "0.0" : 376649.25727514905,
                "50.0" : 399605.737958131,
                "90.0" : 412312.6674180004,
                "95.0" : 415860.8770995452,
                "99.0" : 416023.91097042453,
                "99.9" : 416023.91097042453,
                "99.99" : 416023.91097042453,
                "99.999" : 416023.91097042453,
                "99.9999" : 416023.91097042453,
                "100.0" : 416023.91097042453
            },
            "scoreUnit" : "ops/s",
            "rawData" : [
                [
                    393475.57430150325,
                    405493.80777980154,
                    392532.4173093803,
                    392538.26206761773,
                    390296.6007981238
                ],
                [
                    416023.91097042453,
                    412763.2335528376,
                    408257.57220446575,
                    404000.95745393913,
                    407987.92077978037
                ],
                [
                    394149.6051823256,
                    392178.46267972625,
                    394596.14725968015,
                    376649.25727514905,
                    384152.1251514241
                ],
                [
                    404047.8530247262,
                    401952.88857590995,
                    403595.3655744244,
                    397748.253269013,
                    401463.22264724894
                ]
            ]
        },
        "secondaryMetrics" : {
        }
    },
    {
        "jmhVersion" : "1.36",
        "benchmark" : "benchmarks.SumBenchmark.bench04_arrayForLoop",
        "mode" : "thrpt",
        "threads" : 1,
        "forks" : 4,
        "jvm" : "/private/var/root/Library/Caches/Coursier/arc/https/github.com/graalvm/graalvm-ce-builds/releases/download/vm-22.3.1/graalvm-ce-java17-darwin-amd64-22.3.1.tar.gz/graalvm-ce-java17-22.3.1/Contents/Home/bin/java",
        "jvmArgs" : [
            "-XX:ThreadPriorityPolicy=1",
            "-XX:+UnlockExperimentalVMOptions",
            "-XX:+EnableJVMCIProduct",
            "-XX:JVMCIThreadsPerNativeLibraryRuntime=1",
            "-XX:-UnlockExperimentalVMOptions"
        ],
        "jdkVersion" : "17.0.6",
        "vmName" : "OpenJDK 64-Bit Server VM",
        "vmVersion" : "17.0.6+10-jvmci-22.3-b13",
        "warmupIterations" : 5,
        "warmupTime" : "2 s",
        "warmupBatchSize" : 1,
        "measurementIterations" : 5,
        "measurementTime" : "2 s",
        "measurementBatchSize" : 1,
        "primaryMetric" : {
            "score" : 399884.36633312056,
            "scoreError" : 12831.527783749221,
            "scoreConfidence" : [
                387052.83854937134,
                412715.8941168698
            ],
            "scorePercentiles" : {
                "0.0" : 372848.05756193964,
                "50.0" : 395806.31844300765,
                "90.0" : 423948.82562826935,
                "95.0" : 425543.93583635864,
                "99.0" : 425618.77301357774,
                "99.9" : 425618.77301357774,
                "99.99" : 425618.77301357774,
                "99.999" : 425618.77301357774,
                "99.9999" : 425618.77301357774,
                "100.0" : 425618.77301357774
            },
            "scoreUnit" : "ops/s",
            "rawData" : [
                [
                    406583.3687273588,
                    385690.7233735069,
                    388772.2353858412,
                    396231.68513760273,
                    401243.6343459944
                ],
                [
                    383342.2246582868,
                    389937.6257581521,
                    372848.05756193964,
                    392308.8940176344,
                    395380.9517484125
                ],
                [
                    393008.6383220188,
                    394227.1256142259,
                    396615.9948960371,
                    398332.0404377826,
                    393938.69960724574
                ],
                [
                    424122.0294691955,
                    422389.99105993373,
                    419534.4287034067,
                    417560.2048242573,
                    425618.77301357774
                ]
            ]
        },
        "secondaryMetrics" : {
        }
    },
    {
        "jmhVersion" : "1.36",
        "benchmark" : "benchmarks.SumBenchmark.bench05_arrayOptimizedForeach",
        "mode" : "thrpt",
        "threads" : 1,
        "forks" : 4,
        "jvm" : "/private/var/root/Library/Caches/Coursier/arc/https/github.com/graalvm/graalvm-ce-builds/releases/download/vm-22.3.1/graalvm-ce-java17-darwin-amd64-22.3.1.tar.gz/graalvm-ce-java17-22.3.1/Contents/Home/bin/java",
        "jvmArgs" : [
            "-XX:ThreadPriorityPolicy=1",
            "-XX:+UnlockExperimentalVMOptions",
            "-XX:+EnableJVMCIProduct",
            "-XX:JVMCIThreadsPerNativeLibraryRuntime=1",
            "-XX:-UnlockExperimentalVMOptions"
        ],
        "jdkVersion" : "17.0.6",
        "vmName" : "OpenJDK 64-Bit Server VM",
        "vmVersion" : "17.0.6+10-jvmci-22.3-b13",
        "warmupIterations" : 5,
        "warmupTime" : "2 s",
        "warmupBatchSize" : 1,
        "measurementIterations" : 5,
        "measurementTime" : "2 s",
        "measurementBatchSize" : 1,
        "primaryMetric" : {
            "score" : 409810.63857855595,
            "scoreError" : 2090.9508829667097,
            "scoreConfidence" : [
                407719.68769558927,
                411901.58946152264
            ],
            "scorePercentiles" : {
                "0.0" : 405333.16532012436,
                "50.0" : 410633.05694540084,
                "90.0" : 412784.4077851923,
                "95.0" : 412842.24134400825,
                "99.0" : 412845.08611798176,
                "99.9" : 412845.08611798176,
                "99.99" : 412845.08611798176,
                "99.999" : 412845.08611798176,
                "99.9999" : 412845.08611798176,
                "100.0" : 412845.08611798176
            },
            "scoreUnit" : "ops/s",
            "rawData" : [
                [
                    409745.824939419,
                    411612.53367147606,
                    410259.3156412992,
                    405358.0635015328,
                    412845.08611798176
                ],
                [
                    408570.49024378567,
                    411569.29594665795,
                    410522.3731575768,
                    407197.25611904304,
                    412750.36210531776
                ],
                [
                    408516.412238952,
                    409144.8334800701,
                    410848.871005894,
                    405388.3307859618,
                    411409.8327592363
                ],
                [
                    410825.4913675911,
                    410743.7407332249,
                    410783.3017974627,
                    405333.16532012436,
                    412788.19063851173
                ]
            ]
        },
        "secondaryMetrics" : {
        }
    },
    {
        "jmhVersion" : "1.36",
        "benchmark" : "benchmarks.SumBenchmark.bench06_arrayOptimizedForeachArgInlined",
        "mode" : "thrpt",
        "threads" : 1,
        "forks" : 4,
        "jvm" : "/private/var/root/Library/Caches/Coursier/arc/https/github.com/graalvm/graalvm-ce-builds/releases/download/vm-22.3.1/graalvm-ce-java17-darwin-amd64-22.3.1.tar.gz/graalvm-ce-java17-22.3.1/Contents/Home/bin/java",
        "jvmArgs" : [
            "-XX:ThreadPriorityPolicy=1",
            "-XX:+UnlockExperimentalVMOptions",
            "-XX:+EnableJVMCIProduct",
            "-XX:JVMCIThreadsPerNativeLibraryRuntime=1",
            "-XX:-UnlockExperimentalVMOptions"
        ],
        "jdkVersion" : "17.0.6",
        "vmName" : "OpenJDK 64-Bit Server VM",
        "vmVersion" : "17.0.6+10-jvmci-22.3-b13",
        "warmupIterations" : 5,
        "warmupTime" : "2 s",
        "warmupBatchSize" : 1,
        "measurementIterations" : 5,
        "measurementTime" : "2 s",
        "measurementBatchSize" : 1,
        "primaryMetric" : {
            "score" : 408602.94116616703,
            "scoreError" : 4053.884188301051,
            "scoreConfidence" : [
                404549.056977866,
                412656.8253544681
            ],
            "scorePercentiles" : {
                "0.0" : 392751.62824674626,
                "50.0" : 409520.00070269825,
                "90.0" : 413129.21883919113,
                "95.0" : 413494.75652539486,
                "99.0" : 413513.16683665797,
                "99.9" : 413513.16683665797,
                "99.99" : 413513.16683665797,
                "99.999" : 413513.16683665797,
                "99.9999" : 413513.16683665797,
                "100.0" : 413513.16683665797
            },
            "scoreUnit" : "ops/s",
            "rawData" : [
                [
                    408911.70473544137,
                    409474.71329515066,
                    409565.2881102459,
                    406914.4658518413,
                    412112.19277900044
                ],
                [
                    409168.91506914655,
                    405842.91870497406,
                    405718.082349125,
                    411194.9265077618,
                    413144.9606113963
                ],
                [
                    408988.41908396117,
                    412156.1838691801,
                    405385.9025697928,
                    409996.2368866663,
                    413513.16683665797
                ],
                [
                    392751.62824674626,
                    410342.33297746774,
                    403384.4082766127,
                    410504.8336728269,
                    412987.5428893448
                ]
            ]
        },
        "secondaryMetrics" : {
        }
    },
    {
        "jmhVersion" : "1.36",
        "benchmark" : "benchmarks.SumBenchmark.bench07_listSumMethod",
        "mode" : "thrpt",
        "threads" : 1,
        "forks" : 4,
        "jvm" : "/private/var/root/Library/Caches/Coursier/arc/https/github.com/graalvm/graalvm-ce-builds/releases/download/vm-22.3.1/graalvm-ce-java17-darwin-amd64-22.3.1.tar.gz/graalvm-ce-java17-22.3.1/Contents/Home/bin/java",
        "jvmArgs" : [
            "-XX:ThreadPriorityPolicy=1",
            "-XX:+UnlockExperimentalVMOptions",
            "-XX:+EnableJVMCIProduct",
            "-XX:JVMCIThreadsPerNativeLibraryRuntime=1",
            "-XX:-UnlockExperimentalVMOptions"
        ],
        "jdkVersion" : "17.0.6",
        "vmName" : "OpenJDK 64-Bit Server VM",
        "vmVersion" : "17.0.6+10-jvmci-22.3-b13",
        "warmupIterations" : 5,
        "warmupTime" : "2 s",
        "warmupBatchSize" : 1,
        "measurementIterations" : 5,
        "measurementTime" : "2 s",
        "measurementBatchSize" : 1,
        "primaryMetric" : {
            "score" : 30606.012234465634,
            "scoreError" : 416.57638264056544,
            "scoreConfidence" : [
                30189.43585182507,
                31022.588617106197
            ],
            "scorePercentiles" : {
                "0.0" : 29361.048128252867,
                "50.0" : 30586.309886244053,
                "90.0" : 31162.750682940412,
                "95.0" : 31317.53216726787,
                "99.0" : 31325.473014829844,
                "99.9" : 31325.473014829844,
                "99.99" : 31325.473014829844,
                "99.999" : 31325.473014829844,
                "99.9999" : 31325.473014829844,
                "100.0" : 31325.473014829844
            },
            "scoreUnit" : "ops/s",
            "rawData" : [
                [
                    30603.73154787085,
                    31052.025464090766,
                    31127.60225709086,
                    31166.656063590362,
                    30568.888224617254
                ],
                [
                    30286.665425974585,
                    31325.473014829844,
                    30728.008213329584,
                    30764.256532864492,
                    30212.28764555178
                ],
                [
                    29981.83300572354,
                    30070.730615671022,
                    30403.814574543772,
                    30885.186742094615,
                    29361.048128252867
                ],
                [
                    30565.39906473467,
                    31009.20837434786,
                    30446.045063990598,
                    30484.27924030061,
                    31077.105489842557
                ]
            ]
        },
        "secondaryMetrics" : {
        }
    },
    {
        "jmhVersion" : "1.36",
        "benchmark" : "benchmarks.SumBenchmark.bench08_listForLoopIndex",
        "mode" : "thrpt",
        "threads" : 1,
        "forks" : 4,
        "jvm" : "/private/var/root/Library/Caches/Coursier/arc/https/github.com/graalvm/graalvm-ce-builds/releases/download/vm-22.3.1/graalvm-ce-java17-darwin-amd64-22.3.1.tar.gz/graalvm-ce-java17-22.3.1/Contents/Home/bin/java",
        "jvmArgs" : [
            "-XX:ThreadPriorityPolicy=1",
            "-XX:+UnlockExperimentalVMOptions",
            "-XX:+EnableJVMCIProduct",
            "-XX:JVMCIThreadsPerNativeLibraryRuntime=1",
            "-XX:-UnlockExperimentalVMOptions"
        ],
        "jdkVersion" : "17.0.6",
        "vmName" : "OpenJDK 64-Bit Server VM",
        "vmVersion" : "17.0.6+10-jvmci-22.3-b13",
        "warmupIterations" : 5,
        "warmupTime" : "2 s",
        "warmupBatchSize" : 1,
        "measurementIterations" : 5,
        "measurementTime" : "2 s",
        "measurementBatchSize" : 1,
        "primaryMetric" : {
            "score" : 10.585746503953814,
            "scoreError" : 0.37936991357137384,
            "scoreConfidence" : [
                10.20637659038244,
                10.965116417525188
            ],
            "scorePercentiles" : {
                "0.0" : 9.420743646401455,
                "50.0" : 10.593597143860801,
                "90.0" : 11.187144967635016,
                "95.0" : 11.243414623389823,
                "99.0" : 11.245103587936137,
                "99.9" : 11.245103587936137,
                "99.99" : 11.245103587936137,
                "99.999" : 11.245103587936137,
                "99.9999" : 11.245103587936137,
                "100.0" : 11.245103587936137
            },
            "scoreUnit" : "ops/s",
            "rawData" : [
                [
                    10.390072801181894,
                    9.979171119778224,
                    10.015910708182746,
                    10.475340033453268,
                    10.63676450661295
                ],
                [
                    10.414479538143144,
                    10.52584088770701,
                    10.969531003261514,
                    10.550429781108651,
                    10.813252177470613
                ],
                [
                    10.962563945862556,
                    9.420743646401455,
                    10.870625307451549,
                    10.853252398314838,
                    11.245103587936137
                ],
                [
                    10.401434431509697,
                    10.906003970976183,
                    11.211324297009849,
                    10.417994867994524,
                    10.655091068719495
                ]
            ]
        },
        "secondaryMetrics" : {
        }
    },
    {
        "jmhVersion" : "1.36",
        "benchmark" : "benchmarks.SumBenchmark.bench09_listForLoop",
        "mode" : "thrpt",
        "threads" : 1,
        "forks" : 4,
        "jvm" : "/private/var/root/Library/Caches/Coursier/arc/https/github.com/graalvm/graalvm-ce-builds/releases/download/vm-22.3.1/graalvm-ce-java17-darwin-amd64-22.3.1.tar.gz/graalvm-ce-java17-22.3.1/Contents/Home/bin/java",
        "jvmArgs" : [
            "-XX:ThreadPriorityPolicy=1",
            "-XX:+UnlockExperimentalVMOptions",
            "-XX:+EnableJVMCIProduct",
            "-XX:JVMCIThreadsPerNativeLibraryRuntime=1",
            "-XX:-UnlockExperimentalVMOptions"
        ],
        "jdkVersion" : "17.0.6",
        "vmName" : "OpenJDK 64-Bit Server VM",
        "vmVersion" : "17.0.6+10-jvmci-22.3-b13",
        "warmupIterations" : 5,
        "warmupTime" : "2 s",
        "warmupBatchSize" : 1,
        "measurementIterations" : 5,
        "measurementTime" : "2 s",
        "measurementBatchSize" : 1,
        "primaryMetric" : {
            "score" : 45860.9044795151,
            "scoreError" : 1554.0035793170432,
            "scoreConfidence" : [
                44306.90090019805,
                47414.908058832145
            ],
            "scorePercentiles" : {
                "0.0" : 39637.39497174851,
                "50.0" : 46226.773499556715,
                "90.0" : 47658.292069837364,
                "95.0" : 47730.53532959184,
                "99.0" : 47732.727390318876,
                "99.9" : 47732.727390318876,
                "99.99" : 47732.727390318876,
                "99.999" : 47732.727390318876,
                "99.9999" : 47732.727390318876,
                "100.0" : 47732.727390318876
            },
            "scoreUnit" : "ops/s",
            "rawData" : [
                [
                    46475.37741367444,
                    45476.89906692408,
                    47362.10106129789,
                    45281.520756035774,
                    44317.29365210908
                ],
                [
                    46695.92995912921,
                    45827.655777236825,
                    44355.535033303364,
                    46800.17192982029,
                    39637.39497174851
                ],
                [
                    47382.94511637005,
                    47732.727390318876,
                    47688.88617577818,
                    44923.965708540316,
                    46614.023230493294
                ],
                [
                    45790.3533437587,
                    46465.7260299492,
                    45987.82096916423,
                    47081.05285035158,
                    45320.709154298056
                ]
            ]
        },
        "secondaryMetrics" : {
        }
    },
    {
        "jmhVersion" : "1.36",
        "benchmark" : "benchmarks.SumBenchmark.bench10_listOptimizedForeach",
        "mode" : "thrpt",
        "threads" : 1,
        "forks" : 4,
        "jvm" : "/private/var/root/Library/Caches/Coursier/arc/https/github.com/graalvm/graalvm-ce-builds/releases/download/vm-22.3.1/graalvm-ce-java17-darwin-amd64-22.3.1.tar.gz/graalvm-ce-java17-22.3.1/Contents/Home/bin/java",
        "jvmArgs" : [
            "-XX:ThreadPriorityPolicy=1",
            "-XX:+UnlockExperimentalVMOptions",
            "-XX:+EnableJVMCIProduct",
            "-XX:JVMCIThreadsPerNativeLibraryRuntime=1",
            "-XX:-UnlockExperimentalVMOptions"
        ],
        "jdkVersion" : "17.0.6",
        "vmName" : "OpenJDK 64-Bit Server VM",
        "vmVersion" : "17.0.6+10-jvmci-22.3-b13",
        "warmupIterations" : 5,
        "warmupTime" : "2 s",
        "warmupBatchSize" : 1,
        "measurementIterations" : 5,
        "measurementTime" : "2 s",
        "measurementBatchSize" : 1,
        "primaryMetric" : {
            "score" : 44737.05649274765,
            "scoreError" : 1832.6858878845414,
            "scoreConfidence" : [
                42904.370604863114,
                46569.74238063219
            ],
            "scorePercentiles" : {
                "0.0" : 40560.58024296909,
                "50.0" : 44320.85931169741,
                "90.0" : 47214.978779123725,
                "95.0" : 48447.61438092058,
                "99.0" : 48510.6673711893,
                "99.9" : 48510.6673711893,
                "99.99" : 48510.6673711893,
                "99.999" : 48510.6673711893,
                "99.9999" : 48510.6673711893,
                "100.0" : 48510.6673711893
            },
            "scoreUnit" : "ops/s",
            "rawData" : [
                [
                    43869.75175660759,
                    46613.83089212603,
                    43018.226882849136,
                    44315.39831620935,
                    44326.320307185466
                ],
                [
                    40560.58024296909,
                    42642.10856280866,
                    44305.4817505458,
                    44231.55368395997,
                    46503.97793714672
                ],
                [
                    46339.017194191845,
                    41787.18593835461,
                    48510.6673711893,
                    46595.93080614708,
                    42588.49662914075
                ],
                [
                    42689.10529419289,
                    46306.282211122125,
                    46903.319698903346,
                    47249.60756581488,
                    45384.28681348842
                ]
            ]
        },
        "secondaryMetrics" : {
        }
    },
    {
        "jmhVersion" : "1.36",
        "benchmark" : "benchmarks.SumBenchmark.bench11_listOptimizedForeachArgInlined",
        "mode" : "thrpt",
        "threads" : 1,
        "forks" : 4,
        "jvm" : "/private/var/root/Library/Caches/Coursier/arc/https/github.com/graalvm/graalvm-ce-builds/releases/download/vm-22.3.1/graalvm-ce-java17-darwin-amd64-22.3.1.tar.gz/graalvm-ce-java17-22.3.1/Contents/Home/bin/java",
        "jvmArgs" : [
            "-XX:ThreadPriorityPolicy=1",
            "-XX:+UnlockExperimentalVMOptions",
            "-XX:+EnableJVMCIProduct",
            "-XX:JVMCIThreadsPerNativeLibraryRuntime=1",
            "-XX:-UnlockExperimentalVMOptions"
        ],
        "jdkVersion" : "17.0.6",
        "vmName" : "OpenJDK 64-Bit Server VM",
        "vmVersion" : "17.0.6+10-jvmci-22.3-b13",
        "warmupIterations" : 5,
        "warmupTime" : "2 s",
        "warmupBatchSize" : 1,
        "measurementIterations" : 5,
        "measurementTime" : "2 s",
        "measurementBatchSize" : 1,
        "primaryMetric" : {
            "score" : 45693.09292514295,
            "scoreError" : 1368.892375577391,
            "scoreConfidence" : [
                44324.200549565554,
                47061.98530072034
            ],
            "scorePercentiles" : {
                "0.0" : 42406.1209980048,
                "50.0" : 46342.726612113154,
                "90.0" : 47180.91300014966,
                "95.0" : 48262.6527096038,
                "99.0" : 48319.43604925411,
                "99.9" : 48319.43604925411,
                "99.99" : 48319.43604925411,
                "99.999" : 48319.43604925411,
                "99.9999" : 48319.43604925411,
                "100.0" : 48319.43604925411
            },
            "scoreUnit" : "ops/s",
            "rawData" : [
                [
                    45943.1146935045,
                    46681.44594622284,
                    44642.859082729556,
                    44016.12067469154,
                    44349.47612942989
                ],
                [
                    46608.28576545052,
                    45996.54662759137,
                    46533.538033751305,
                    48319.43604925411,
                    43252.16556529216
                ],
                [
                    44114.88166304367,
                    46283.312238812185,
                    46402.140985414124,
                    47183.769256247826,
                    42406.1209980048
                ],
                [
                    46722.531044998446,
                    47155.20669526617,
                    43695.970842937444,
                    46605.4281872079,
                    46949.50802300857
                ]
            ]
        },
        "secondaryMetrics" : {
        }
    }
]


