[
    {
        "jmhVersion" : "1.36",
        "benchmark" : "benchmarks.SumBenchmark.bench00_arraySumMethod",
        "mode" : "thrpt",
        "threads" : 1,
        "forks" : 4,
        "jvm" : "/private/var/root/Library/Caches/Coursier/arc/https/github.com/adoptium/temurin17-binaries/releases/download/jdk-17.0.6%252B10/OpenJDK17U-jdk_x64_mac_hotspot_17.0.6_10.tar.gz/jdk-17.0.6+10/Contents/Home/bin/java",
        "jvmArgs" : [
        ],
        "jdkVersion" : "17.0.6",
        "vmName" : "OpenJDK 64-Bit Server VM",
        "vmVersion" : "17.0.6+10",
        "warmupIterations" : 5,
        "warmupTime" : "2 s",
        "warmupBatchSize" : 1,
        "measurementIterations" : 5,
        "measurementTime" : "2 s",
        "measurementBatchSize" : 1,
        "primaryMetric" : {
            "score" : 21621.08470254301,
            "scoreError" : 137.2450850089646,
            "scoreConfidence" : [
                21483.839617534042,
                21758.329787551975
            ],
            "scorePercentiles" : {
                "0.0" : 21262.79643061661,
                "50.0" : 21616.883363853012,
                "90.0" : 21833.82343407567,
                "95.0" : 21842.931024483678,
                "99.0" : 21843.27477468522,
                "99.9" : 21843.27477468522,
                "99.99" : 21843.27477468522,
                "99.999" : 21843.27477468522,
                "99.9999" : 21843.27477468522,
                "100.0" : 21843.27477468522
            },
            "scoreUnit" : "ops/s",
            "rawData" : [
                [
                    21427.77185317952,
                    21461.65273337881,
                    21410.318104570768,
                    21262.79643061661,
                    21573.887933565675
                ],
                [
                    21685.293595205272,
                    21745.221242690444,
                    21629.186749296263,
                    21584.41857487543,
                    21836.399770654425
                ],
                [
                    21683.824452519904,
                    21489.28719397009,
                    21604.57997840976,
                    21575.676624933432,
                    21810.636404866877
                ],
                [
                    21843.27477468522,
                    21797.427502458144,
                    21576.937161415328,
                    21636.851614697436,
                    21786.251354870772
                ]
            ]
        },
        "secondaryMetrics" : {
        }
    },
    {
        "jmhVersion" : "1.36",
        "benchmark" : "benchmarks.SumBenchmark.bench01_arrayWhileLoopIndex",
        "mode" : "thrpt",
        "threads" : 1,
        "forks" : 4,
        "jvm" : "/private/var/root/Library/Caches/Coursier/arc/https/github.com/adoptium/temurin17-binaries/releases/download/jdk-17.0.6%252B10/OpenJDK17U-jdk_x64_mac_hotspot_17.0.6_10.tar.gz/jdk-17.0.6+10/Contents/Home/bin/java",
        "jvmArgs" : [
        ],
        "jdkVersion" : "17.0.6",
        "vmName" : "OpenJDK 64-Bit Server VM",
        "vmVersion" : "17.0.6+10",
        "warmupIterations" : 5,
        "warmupTime" : "2 s",
        "warmupBatchSize" : 1,
        "measurementIterations" : 5,
        "measurementTime" : "2 s",
        "measurementBatchSize" : 1,
        "primaryMetric" : {
            "score" : 422295.17853717535,
            "scoreError" : 14731.147732830954,
            "scoreConfidence" : [
                407564.0308043444,
                437026.3262700063
            ],
            "scorePercentiles" : {
                "0.0" : 382380.758290303,
                "50.0" : 431498.563254431,
                "90.0" : 435941.36199670023,
                "95.0" : 436580.476243277,
                "99.0" : 436611.463530712,
                "99.9" : 436611.463530712,
                "99.99" : 436611.463530712,
                "99.999" : 436611.463530712,
                "99.9999" : 436611.463530712,
                "100.0" : 436611.463530712
            },
            "scoreUnit" : "ops/s",
            "rawData" : [
                [
                    435080.28463394725,
                    436611.463530712,
                    432806.83244194946,
                    429012.39231994946,
                    435991.71778201277
                ],
                [
                    430190.2940669125,
                    435078.1195510687,
                    434295.59065898,
                    429491.1025328239,
                    435488.15992888727
                ],
                [
                    433001.43826296367,
                    435012.0831210169,
                    433338.2965738189,
                    400994.86801560776,
                    382380.758290303
                ],
                [
                    397904.2741676435,
                    407276.4757484915,
                    395390.096278448,
                    415370.9676728534,
                    411188.3551651173
                ]
            ]
        },
        "secondaryMetrics" : {
        }
    },
    {
        "jmhVersion" : "1.36",
        "benchmark" : "benchmarks.SumBenchmark.bench02_arrayForLoopIndex",
        "mode" : "thrpt",
        "threads" : 1,
        "forks" : 4,
        "jvm" : "/private/var/root/Library/Caches/Coursier/arc/https/github.com/adoptium/temurin17-binaries/releases/download/jdk-17.0.6%252B10/OpenJDK17U-jdk_x64_mac_hotspot_17.0.6_10.tar.gz/jdk-17.0.6+10/Contents/Home/bin/java",
        "jvmArgs" : [
        ],
        "jdkVersion" : "17.0.6",
        "vmName" : "OpenJDK 64-Bit Server VM",
        "vmVersion" : "17.0.6+10",
        "warmupIterations" : 5,
        "warmupTime" : "2 s",
        "warmupBatchSize" : 1,
        "measurementIterations" : 5,
        "measurementTime" : "2 s",
        "measurementBatchSize" : 1,
        "primaryMetric" : {
            "score" : 424935.54520032945,
            "scoreError" : 6931.361725002256,
            "scoreConfidence" : [
                418004.1834753272,
                431866.9069253317
            ],
            "scorePercentiles" : {
                "0.0" : 406076.2537026824,
                "50.0" : 427600.0456093827,
                "90.0" : 431846.103581925,
                "95.0" : 432346.75291665626,
                "99.0" : 432370.77545877843,
                "99.9" : 432370.77545877843,
                "99.99" : 432370.77545877843,
                "99.999" : 432370.77545877843,
                "99.9999" : 432370.77545877843,
                "100.0" : 432370.77545877843
            },
            "scoreUnit" : "ops/s",
            "rawData" : [
                [
                    406076.2537026824,
                    410893.37327024137,
                    414171.2772711112,
                    411096.6660833087,
                    423016.59210092097
                ],
                [
                    427809.27528515906,
                    427390.81593360624,
                    423397.2417358362,
                    430660.7359552355,
                    424897.8981726314
                ],
                [
                    431448.114272236,
                    430823.09036133625,
                    425857.60965624376,
                    429634.9725161709,
                    431890.32461633487
                ],
                [
                    431205.5841745411,
                    430184.86639165564,
                    425867.58431675186,
                    432370.77545877843,
                    430017.852731809
                ]
            ]
        },
        "secondaryMetrics" : {
        }
    },
    {
        "jmhVersion" : "1.36",
        "benchmark" : "benchmarks.SumBenchmark.bench03_arrayOptimizedForLoopIndex",
        "mode" : "thrpt",
        "threads" : 1,
        "forks" : 4,
        "jvm" : "/private/var/root/Library/Caches/Coursier/arc/https/github.com/adoptium/temurin17-binaries/releases/download/jdk-17.0.6%252B10/OpenJDK17U-jdk_x64_mac_hotspot_17.0.6_10.tar.gz/jdk-17.0.6+10/Contents/Home/bin/java",
        "jvmArgs" : [
        ],
        "jdkVersion" : "17.0.6",
        "vmName" : "OpenJDK 64-Bit Server VM",
        "vmVersion" : "17.0.6+10",
        "warmupIterations" : 5,
        "warmupTime" : "2 s",
        "warmupBatchSize" : 1,
        "measurementIterations" : 5,
        "measurementTime" : "2 s",
        "measurementBatchSize" : 1,
        "primaryMetric" : {
            "score" : 427231.1795409963,
            "scoreError" : 5067.860953215638,
            "scoreConfidence" : [
                422163.3185877807,
                432299.04049421195
            ],
            "scorePercentiles" : {
                "0.0" : 410380.3067719091,
                "50.0" : 429525.08768737933,
                "90.0" : 432456.01262572553,
                "95.0" : 432607.43589237006,
                "99.0" : 432611.79353916686,
                "99.9" : 432611.79353916686,
                "99.99" : 432611.79353916686,
                "99.999" : 432611.79353916686,
                "99.9999" : 432611.79353916686,
                "100.0" : 432611.79353916686
            },
            "scoreUnit" : "ops/s",
            "rawData" : [
                [
                    430940.5035126968,
                    430783.00193762657,
                    424341.14717487,
                    431451.05225010274,
                    427953.43257504184
                ],
                [
                    430551.3212506697,
                    431838.36082818033,
                    419210.9074272212,
                    417195.44012323185,
                    410380.3067719091
                ],
                [
                    430797.7536246499,
                    429456.1121633015,
                    424615.83578755404,
                    429594.0632114572,
                    431667.56834286405
                ],
                [
                    427626.97240171465,
                    432524.64060323057,
                    425193.1470288911,
                    425890.23026554816,
                    432611.79353916686
                ]
            ]
        },
        "secondaryMetrics" : {
        }
    },
    {
        "jmhVersion" : "1.36",
        "benchmark" : "benchmarks.SumBenchmark.bench04_arrayForLoop",
        "mode" : "thrpt",
        "threads" : 1,
        "forks" : 4,
        "jvm" : "/private/var/root/Library/Caches/Coursier/arc/https/github.com/adoptium/temurin17-binaries/releases/download/jdk-17.0.6%252B10/OpenJDK17U-jdk_x64_mac_hotspot_17.0.6_10.tar.gz/jdk-17.0.6+10/Contents/Home/bin/java",
        "jvmArgs" : [
        ],
        "jdkVersion" : "17.0.6",
        "vmName" : "OpenJDK 64-Bit Server VM",
        "vmVersion" : "17.0.6+10",
        "warmupIterations" : 5,
        "warmupTime" : "2 s",
        "warmupBatchSize" : 1,
        "measurementIterations" : 5,
        "measurementTime" : "2 s",
        "measurementBatchSize" : 1,
        "primaryMetric" : {
            "score" : 47280.385243208046,
            "scoreError" : 756.1853364405727,
            "scoreConfidence" : [
                46524.19990676747,
                48036.57057964862
            ],
            "scorePercentiles" : {
                "0.0" : 45448.47172654083,
                "50.0" : 47645.36987435997,
                "90.0" : 48095.263646733736,
                "95.0" : 48179.40897833523,
                "99.0" : 48183.36936608311,
                "99.9" : 48183.36936608311,
                "99.99" : 48183.36936608311,
                "99.999" : 48183.36936608311,
                "99.9999" : 48183.36936608311,
                "100.0" : 48183.36936608311
            },
            "scoreUnit" : "ops/s",
            "rawData" : [
                [
                    47643.81992568907,
                    47882.40404805695,
                    45496.81123598087,
                    46339.16771438026,
                    48015.18196720802
                ],
                [
                    47646.91982303087,
                    47949.60546737057,
                    47395.59398193886,
                    47859.8244121747,
                    48183.36936608311
                ],
                [
                    47505.66214554016,
                    46623.99963312943,
                    46546.61195446228,
                    45448.47172654083,
                    46016.45513043959
                ],
                [
                    47674.16477982053,
                    47772.49208204063,
                    47568.29784641376,
                    47934.69001273492,
                    48104.161611125484
                ]
            ]
        },
        "secondaryMetrics" : {
        }
    },
    {
        "jmhVersion" : "1.36",
        "benchmark" : "benchmarks.SumBenchmark.bench05_arrayOptimizedForeach",
        "mode" : "thrpt",
        "threads" : 1,
        "forks" : 4,
        "jvm" : "/private/var/root/Library/Caches/Coursier/arc/https/github.com/adoptium/temurin17-binaries/releases/download/jdk-17.0.6%252B10/OpenJDK17U-jdk_x64_mac_hotspot_17.0.6_10.tar.gz/jdk-17.0.6+10/Contents/Home/bin/java",
        "jvmArgs" : [
        ],
        "jdkVersion" : "17.0.6",
        "vmName" : "OpenJDK 64-Bit Server VM",
        "vmVersion" : "17.0.6+10",
        "warmupIterations" : 5,
        "warmupTime" : "2 s",
        "warmupBatchSize" : 1,
        "measurementIterations" : 5,
        "measurementTime" : "2 s",
        "measurementBatchSize" : 1,
        "primaryMetric" : {
            "score" : 402592.636563458,
            "scoreError" : 6248.864420903371,
            "scoreConfidence" : [
                396343.77214255463,
                408841.5009843614
            ],
            "scorePercentiles" : {
                "0.0" : 384994.3043266014,
                "50.0" : 405600.1598743976,
                "90.0" : 407754.7474340377,
                "95.0" : 408077.51278998045,
                "99.0" : 408094.2863984148,
                "99.9" : 408094.2863984148,
                "99.99" : 408094.2863984148,
                "99.999" : 408094.2863984148,
                "99.9999" : 408094.2863984148,
                "100.0" : 408094.2863984148
            },
            "scoreUnit" : "ops/s",
            "rawData" : [
                [
                    405189.42172324716,
                    405162.66198146454,
                    404062.14902205294,
                    407474.04390230513,
                    408094.2863984148
                ],
                [
                    406010.8980255481,
                    403280.51481332554,
                    406654.7531105352,
                    407718.1462728262,
                    407682.09207866277
                ],
                [
                    406091.9021926475,
                    403163.8031114411,
                    407758.81422972784,
                    407139.66514762526,
                    406559.7389880345
                ],
                [
                    401063.03785398835,
                    396517.74833164335,
                    384994.3043266014,
                    391638.14359949314,
                    385596.6061595754
                ]
            ]
        },
        "secondaryMetrics" : {
        }
    },
    {
        "jmhVersion" : "1.36",
        "benchmark" : "benchmarks.SumBenchmark.bench06_arrayOptimizedForeachArgInlined",
        "mode" : "thrpt",
        "threads" : 1,
        "forks" : 4,
        "jvm" : "/private/var/root/Library/Caches/Coursier/arc/https/github.com/adoptium/temurin17-binaries/releases/download/jdk-17.0.6%252B10/OpenJDK17U-jdk_x64_mac_hotspot_17.0.6_10.tar.gz/jdk-17.0.6+10/Contents/Home/bin/java",
        "jvmArgs" : [
        ],
        "jdkVersion" : "17.0.6",
        "vmName" : "OpenJDK 64-Bit Server VM",
        "vmVersion" : "17.0.6+10",
        "warmupIterations" : 5,
        "warmupTime" : "2 s",
        "warmupBatchSize" : 1,
        "measurementIterations" : 5,
        "measurementTime" : "2 s",
        "measurementBatchSize" : 1,
        "primaryMetric" : {
            "score" : 403157.0209167843,
            "scoreError" : 4283.803534539102,
            "scoreConfidence" : [
                398873.2173822452,
                407440.8244513234
            ],
            "scorePercentiles" : {
                "0.0" : 392766.9443117348,
                "50.0" : 405686.30246675207,
                "90.0" : 407748.9164037121,
                "95.0" : 407859.19331729173,
                "99.0" : 407860.92472877743,
                "99.9" : 407860.92472877743,
                "99.99" : 407860.92472877743,
                "99.999" : 407860.92472877743,
                "99.9999" : 407860.92472877743,
                "100.0" : 407860.92472877743
            },
            "scoreUnit" : "ops/s",
            "rawData" : [
                [
                    406559.42567691364,
                    402217.6480659543,
                    402999.0842382143,
                    405396.17871011666,
                    406218.87890946947
                ],
                [
                    407826.2964990639,
                    402796.2906272446,
                    407052.4955455461,
                    395398.2398268677,
                    393902.2217905756
                ],
                [
                    403419.0467703725,
                    392766.9443117348,
                    406999.9433938006,
                    406826.77475132066,
                    396498.084178107
                ],
                [
                    406728.0973121747,
                    399043.9506612444,
                    405976.4262233875,
                    406653.46611480095,
                    407860.92472877743
                ]
            ]
        },
        "secondaryMetrics" : {
        }
    },
    {
        "jmhVersion" : "1.36",
        "benchmark" : "benchmarks.SumBenchmark.bench07_listSumMethod",
        "mode" : "thrpt",
        "threads" : 1,
        "forks" : 4,
        "jvm" : "/private/var/root/Library/Caches/Coursier/arc/https/github.com/adoptium/temurin17-binaries/releases/download/jdk-17.0.6%252B10/OpenJDK17U-jdk_x64_mac_hotspot_17.0.6_10.tar.gz/jdk-17.0.6+10/Contents/Home/bin/java",
        "jvmArgs" : [
        ],
        "jdkVersion" : "17.0.6",
        "vmName" : "OpenJDK 64-Bit Server VM",
        "vmVersion" : "17.0.6+10",
        "warmupIterations" : 5,
        "warmupTime" : "2 s",
        "warmupBatchSize" : 1,
        "measurementIterations" : 5,
        "measurementTime" : "2 s",
        "measurementBatchSize" : 1,
        "primaryMetric" : {
            "score" : 22492.151281819668,
            "scoreError" : 2434.3223396908597,
            "scoreConfidence" : [
                20057.828942128806,
                24926.47362151053
            ],
            "scorePercentiles" : {
                "0.0" : 17332.36700121543,
                "50.0" : 22617.282537389357,
                "90.0" : 25579.82727911627,
                "95.0" : 25593.416122110277,
                "99.0" : 25593.879162181347,
                "99.9" : 25593.879162181347,
                "99.99" : 25593.879162181347,
                "99.999" : 25593.879162181347,
                "99.9999" : 25593.879162181347,
                "100.0" : 25593.879162181347
            },
            "scoreUnit" : "ops/s",
            "rawData" : [
                [
                    24747.039187752973,
                    24551.333650249097,
                    25268.865501213862,
                    24919.264505643816,
                    24587.59920481564
                ],
                [
                    20014.911872663724,
                    20231.901374123703,
                    20303.02016716199,
                    17332.36700121543,
                    18131.18761057033
                ],
                [
                    25584.61836075997,
                    24964.83223670415,
                    25197.15746337895,
                    25536.70754432296,
                    25593.879162181347
                ],
                [
                    20347.271499200724,
                    20683.231424529615,
                    20622.920033063656,
                    20561.97979142886,
                    20662.938045412448
                ]
            ]
        },
        "secondaryMetrics" : {
        }
    },
    {
        "jmhVersion" : "1.36",
        "benchmark" : "benchmarks.SumBenchmark.bench08_listForLoopIndex",
        "mode" : "thrpt",
        "threads" : 1,
        "forks" : 4,
        "jvm" : "/private/var/root/Library/Caches/Coursier/arc/https/github.com/adoptium/temurin17-binaries/releases/download/jdk-17.0.6%252B10/OpenJDK17U-jdk_x64_mac_hotspot_17.0.6_10.tar.gz/jdk-17.0.6+10/Contents/Home/bin/java",
        "jvmArgs" : [
        ],
        "jdkVersion" : "17.0.6",
        "vmName" : "OpenJDK 64-Bit Server VM",
        "vmVersion" : "17.0.6+10",
        "warmupIterations" : 5,
        "warmupTime" : "2 s",
        "warmupBatchSize" : 1,
        "measurementIterations" : 5,
        "measurementTime" : "2 s",
        "measurementBatchSize" : 1,
        "primaryMetric" : {
            "score" : 10.38032307107829,
            "scoreError" : 0.5596418049162138,
            "scoreConfidence" : [
                9.820681266162076,
                10.939964875994505
            ],
            "scorePercentiles" : {
                "0.0" : 8.963872670913727,
                "50.0" : 10.478584421171256,
                "90.0" : 10.940953217254858,
                "95.0" : 11.273627996645635,
                "99.0" : 11.291125924459585,
                "99.9" : 11.291125924459585,
                "99.99" : 11.291125924459585,
                "99.999" : 11.291125924459585,
                "99.9999" : 11.291125924459585,
                "100.0" : 11.291125924459585
            },
            "scoreUnit" : "ops/s",
            "rawData" : [
                [
                    10.941167368180583,
                    10.772936939031474,
                    8.963872670913727,
                    10.939025858923335,
                    10.494643317479483
                ],
                [
                    10.391150079155452,
                    10.808193162027694,
                    9.469508386589611,
                    10.842164849102087,
                    10.380899346780115
                ],
                [
                    9.109513646767738,
                    9.560732558491953,
                    11.291125924459585,
                    10.409147781925654,
                    10.926523082210231
                ],
                [
                    10.46252552486303,
                    9.947749094734812,
                    10.423099202718728,
                    10.713299610710052,
                    10.759183016500499
                ]
            ]
        },
        "secondaryMetrics" : {
        }
    },
    {
        "jmhVersion" : "1.36",
        "benchmark" : "benchmarks.SumBenchmark.bench09_listForLoop",
        "mode" : "thrpt",
        "threads" : 1,
        "forks" : 4,
        "jvm" : "/private/var/root/Library/Caches/Coursier/arc/https/github.com/adoptium/temurin17-binaries/releases/download/jdk-17.0.6%252B10/OpenJDK17U-jdk_x64_mac_hotspot_17.0.6_10.tar.gz/jdk-17.0.6+10/Contents/Home/bin/java",
        "jvmArgs" : [
        ],
        "jdkVersion" : "17.0.6",
        "vmName" : "OpenJDK 64-Bit Server VM",
        "vmVersion" : "17.0.6+10",
        "warmupIterations" : 5,
        "warmupTime" : "2 s",
        "warmupBatchSize" : 1,
        "measurementIterations" : 5,
        "measurementTime" : "2 s",
        "measurementBatchSize" : 1,
        "primaryMetric" : {
            "score" : 44317.37920915861,
            "scoreError" : 1184.5915390370394,
            "scoreConfidence" : [
                43132.787670121565,
                45501.97074819565
            ],
            "scorePercentiles" : {
                "0.0" : 42558.72995771154,
                "50.0" : 44180.56768293721,
                "90.0" : 46730.38293068415,
                "95.0" : 47761.84214215053,
                "99.0" : 47808.3451805013,
                "99.9" : 47808.3451805013,
                "99.99" : 47808.3451805013,
                "99.999" : 47808.3451805013,
                "99.9999" : 47808.3451805013,
                "100.0" : 47808.3451805013
            },
            "scoreUnit" : "ops/s",
            "rawData" : [
                [
                    43159.76904521786,
                    44589.27232374795,
                    43796.62851543266,
                    43918.23424326802,
                    43543.93053468489
                ],
                [
                    43793.98714841668,
                    42929.314707106925,
                    45196.267875813646,
                    47808.3451805013,
                    44484.906058486864
                ],
                [
                    45116.325131355065,
                    44442.901122606396,
                    42779.556083098934,
                    43489.72049034186,
                    45399.26958546881
                ],
                [
                    42558.72995771154,
                    46878.28441348586,
                    44948.46389073889,
                    44799.8290698255,
                    42713.84880586232
                ]
            ]
        },
        "secondaryMetrics" : {
        }
    },
    {
        "jmhVersion" : "1.36",
        "benchmark" : "benchmarks.SumBenchmark.bench10_listOptimizedForeach",
        "mode" : "thrpt",
        "threads" : 1,
        "forks" : 4,
        "jvm" : "/private/var/root/Library/Caches/Coursier/arc/https/github.com/adoptium/temurin17-binaries/releases/download/jdk-17.0.6%252B10/OpenJDK17U-jdk_x64_mac_hotspot_17.0.6_10.tar.gz/jdk-17.0.6+10/Contents/Home/bin/java",
        "jvmArgs" : [
        ],
        "jdkVersion" : "17.0.6",
        "vmName" : "OpenJDK 64-Bit Server VM",
        "vmVersion" : "17.0.6+10",
        "warmupIterations" : 5,
        "warmupTime" : "2 s",
        "warmupBatchSize" : 1,
        "measurementIterations" : 5,
        "measurementTime" : "2 s",
        "measurementBatchSize" : 1,
        "primaryMetric" : {
            "score" : 44652.49419576218,
            "scoreError" : 2496.857023899499,
            "scoreConfidence" : [
                42155.637171862676,
                47149.35121966168
            ],
            "scorePercentiles" : {
                "0.0" : 39346.99277572741,
                "50.0" : 44906.516118280895,
                "90.0" : 48223.670632444424,
                "95.0" : 48727.79181662338,
                "99.0" : 48752.90279629513,
                "99.9" : 48752.90279629513,
                "99.99" : 48752.90279629513,
                "99.999" : 48752.90279629513,
                "99.9999" : 48752.90279629513,
                "100.0" : 48752.90279629513
            },
            "scoreUnit" : "ops/s",
            "rawData" : [
                [
                    40255.10595386265,
                    44114.781492826514,
                    40174.536898965,
                    43156.72154007127,
                    45838.11206191028
                ],
                [
                    45227.74017197971,
                    45694.02717442578,
                    43021.60599901095,
                    47467.712016643745,
                    46591.9199108757
                ],
                [
                    46551.44458894417,
                    42603.744382188466,
                    44585.29206458207,
                    39346.99277572741,
                    48250.68320286018
                ],
                [
                    47980.55749870265,
                    44022.4624491096,
                    48752.90279629513,
                    41481.103677307496,
                    47932.437258954706
                ]
            ]
        },
        "secondaryMetrics" : {
        }
    },
    {
        "jmhVersion" : "1.36",
        "benchmark" : "benchmarks.SumBenchmark.bench11_listOptimizedForeachArgInlined",
        "mode" : "thrpt",
        "threads" : 1,
        "forks" : 4,
        "jvm" : "/private/var/root/Library/Caches/Coursier/arc/https/github.com/adoptium/temurin17-binaries/releases/download/jdk-17.0.6%252B10/OpenJDK17U-jdk_x64_mac_hotspot_17.0.6_10.tar.gz/jdk-17.0.6+10/Contents/Home/bin/java",
        "jvmArgs" : [
        ],
        "jdkVersion" : "17.0.6",
        "vmName" : "OpenJDK 64-Bit Server VM",
        "vmVersion" : "17.0.6+10",
        "warmupIterations" : 5,
        "warmupTime" : "2 s",
        "warmupBatchSize" : 1,
        "measurementIterations" : 5,
        "measurementTime" : "2 s",
        "measurementBatchSize" : 1,
        "primaryMetric" : {
            "score" : 44701.884422227755,
            "scoreError" : 2033.2760663162128,
            "scoreConfidence" : [
                42668.60835591154,
                46735.16048854397
            ],
            "scorePercentiles" : {
                "0.0" : 39702.31664263441,
                "50.0" : 44376.230067664204,
                "90.0" : 48339.53189980379,
                "95.0" : 49189.55555673785,
                "99.0" : 49228.71058537892,
                "99.9" : 49228.71058537892,
                "99.99" : 49228.71058537892,
                "99.999" : 49228.71058537892,
                "99.9999" : 49228.71058537892,
                "100.0" : 49228.71058537892
            },
            "scoreUnit" : "ops/s",
            "rawData" : [
                [
                    46207.816943975515,
                    49228.71058537892,
                    39702.31664263441,
                    44437.78835158155,
                    43056.79350903678
                ],
                [
                    45307.19055345207,
                    47384.82888502087,
                    43336.95702813425,
                    42584.77922211955,
                    48445.61001255745
                ],
                [
                    46377.76265359155,
                    43021.422017477766,
                    43377.818180901224,
                    46117.509711571256,
                    44026.89512921961
                ],
                [
                    43025.351056911306,
                    47250.06037863831,
                    44314.67178374686,
                    42169.22358065141,
                    44664.18221795433
                ]
            ]
        },
        "secondaryMetrics" : {
        }
    }
]


